<?xml version="1.0" encoding="utf-8"?>
<!-- Generator: Adobe Illustrator 21.1.0, SVG Export Plug-In . SVG Version: 6.00 Build 0)  -->
<svg version="1.1" id="Layer_1" xmlns="http://www.w3.org/2000/svg" xmlns:xlink="http://www.w3.org/1999/xlink" x="0px" y="0px"
	 viewBox="0 0 32 21" style="enable-background:new 0 0 32 21;" xml:space="preserve">
<style type="text/css">
	.st0{fill:#41479B;}
	.st1{fill:#F5F5F5;}
	.st2{fill:#FF4B55;}
</style>
<path class="st0" d="M30.8,20.5H1.2c-0.3,0-0.5-0.2-0.5-0.5V1c0-0.3,0.2-0.5,0.5-0.5h29.6c0.3,0,0.5,0.2,0.5,0.5v19
	C31.3,20.3,31.1,20.5,30.8,20.5z"/>
<path class="st1" d="M31.3,1c0-0.3-0.2-0.5-0.5-0.5h-2.4l-9.8,6.4V0.5h-5.3v6.4L3.6,0.5H1.2C0.9,0.5,0.7,0.7,0.7,1v1.4l8.4,5.5H0.7
	v5.3h8.4l-8.4,5.5V20c0,0.3,0.2,0.5,0.5,0.5h2.4l9.8-6.4v6.4h5.3v-6.4l9.8,6.4h2.4c0.3,0,0.5-0.2,0.5-0.5v-1.4l-8.4-5.5h8.4V7.9
	h-8.4l8.4-5.5V1z"/>
<g>
	<polygon class="st2" points="31.3,8.9 17.6,8.9 17.6,0.5 14.4,0.5 14.4,8.9 0.7,8.9 0.7,12.1 14.4,12.1 14.4,20.5 17.6,20.5 
		17.6,12.1 31.3,12.1 	"/>
	<path class="st2" d="M11.4,13.1L0.7,20.1c0,0.3,0.2,0.5,0.5,0.5h0.7l11.4-7.4L11.4,13.1L11.4,13.1z"/>
	<path class="st2" d="M21.4,13.1h-1.9l11.4,7.4c0.3,0,0.5-0.2,0.5-0.5v-0.4L21.4,13.1z"/>
	<path class="st2" d="M0.7,1.6l9.7,6.3h1.9L1,0.5C0.8,0.6,0.7,0.8,0.7,1V1.6z"/>
	<path class="st2" d="M20.6,7.9l10.7-7c0-0.2-0.3-0.4-0.5-0.4H30L18.6,7.9H20.6z"/>
</g>
</svg>
